// Jest Snapshot v1, https://goo.gl/fbAQLP

exports[`<CircularProgressBar /> displays label when it is 0 1`] = `
<svg
  className="circularProgressbar"
  viewBox="0 0 100 100"
>
  <path
    className="trail"
    d="M 50,50 m 0,-46.5
                a 46.5,46.5 0 1 1 0,93
                a 46.5,46.5 0 1 1 0,-93"
    fillOpacity={0}
    strokeWidth={7}
  />
  <path
    className="path"
    d="M 50,50 m 0,-46.5
                a 46.5,46.5 0 1 1 0,93
                a 46.5,46.5 0 1 1 0,-93"
    fillOpacity={0}
    strokeWidth={8}
    style={
      Object {
        "strokeDasharray": "292.16811678385073px 292.16811678385073px",
        "strokeDashoffset": "292.16811678385073px",
      }
    }
  />
  <text
    className="text"
    x={50}
    y={52}
  >
    0
  </text>
</svg>
`;

exports[`<CircularProgressBar /> does not display label when it is not specified 1`] = `
<svg
  className="circularProgressbar"
  viewBox="0 0 100 100"
>
  <path
    className="trail"
    d="M 50,50 m 0,-46.5
                a 46.5,46.5 0 1 1 0,93
                a 46.5,46.5 0 1 1 0,-93"
    fillOpacity={0}
    strokeWidth={7}
  />
  <path
    className="path"
    d="M 50,50 m 0,-46.5
                a 46.5,46.5 0 1 1 0,93
                a 46.5,46.5 0 1 1 0,-93"
    fillOpacity={0}
    strokeWidth={8}
    style={
      Object {
        "strokeDasharray": "292.16811678385073px 292.16811678385073px",
        "strokeDashoffset": "292.16811678385073px",
      }
    }
  />
  <text
    className="text"
    x={50}
    y={52}
  />
</svg>
`;

exports[`<CircularProgressBar /> has the expected html structure when percentage is specified 1`] = `
<svg
  className="circularProgressbar"
  viewBox="0 0 100 100"
>
  <path
    className="trail"
    d="M 50,50 m 0,-46.5
                a 46.5,46.5 0 1 1 0,93
                a 46.5,46.5 0 1 1 0,-93"
    fillOpacity={0}
    strokeWidth={7}
  />
  <path
    className="path"
    d="M 50,50 m 0,-46.5
                a 46.5,46.5 0 1 1 0,93
                a 46.5,46.5 0 1 1 0,-93"
    fillOpacity={0}
    strokeWidth={8}
    style={
      Object {
        "strokeDasharray": "292.16811678385073px 292.16811678385073px",
        "strokeDashoffset": "292.16811678385073px",
      }
    }
  />
  <text
    className="text"
    x={50}
    y={52}
  >
    4
  </text>
</svg>
`;

exports[`<CircularProgressBar /> has the expected html structure with default props 1`] = `
<svg
  className="circularProgressbar"
  viewBox="0 0 100 100"
>
  <path
    className="trail"
    d="M 50,50 m 0,-46.5
                a 46.5,46.5 0 1 1 0,93
                a 46.5,46.5 0 1 1 0,-93"
    fillOpacity={0}
    strokeWidth={7}
  />
  <path
    className="path"
    d="M 50,50 m 0,-46.5
                a 46.5,46.5 0 1 1 0,93
                a 46.5,46.5 0 1 1 0,-93"
    fillOpacity={0}
    strokeWidth={8}
    style={
      Object {
        "strokeDasharray": "292.16811678385073px 292.16811678385073px",
        "strokeDashoffset": "292.16811678385073px",
      }
    }
  />
  <text
    className="text"
    x={50}
    y={52}
  />
</svg>
`;
