// Jest Snapshot v1, https://goo.gl/fbAQLP

exports[`<Dialog /> has the expected html structure 1`] = `
<Portal
  containerInfo={
    <body
      style="overflow: hidden;"
    />
  }
>
  <aside
    aria-label=""
    aria-modal="true"
    className="overlay"
    onClick={[Function]}
    onKeyDown={[Function]}
    role="dialog"
    tabIndex="-1"
  >
    <div
      className="dialog"
    />
  </aside>
</Portal>
`;

exports[`<Dialog /> renders children by default 1`] = `
<Portal
  containerInfo={
    <body
      style="overflow: hidden;"
    />
  }
>
  <aside
    aria-label=""
    aria-modal="true"
    className="overlay"
    onClick={[Function]}
    onKeyDown={[Function]}
    role="dialog"
    tabIndex="-1"
  >
    <div
      className="dialog"
    >
      <div />
    </div>
  </aside>
</Portal>
`;
