// Jest Snapshot v1, https://goo.gl/fbAQLP

exports[`<StarRatingInput /> has the expected html structure when rating is specified 1`] = `
<div
  className="starRating"
>
  <Rating
    iconSize={30}
    numberOfStars={5}
    onRate={[Function]}
    rating={3.5}
    readOnly={false}
  />
</div>
`;

exports[`<StarRatingInput /> has the expected html structure with default props 1`] = `
<div
  className="starRating"
>
  <Rating
    iconSize={30}
    numberOfStars={5}
    onRate={[Function]}
    rating={0}
    readOnly={false}
  />
</div>
`;
