// Jest Snapshot v1, https://goo.gl/fbAQLP

exports[`<Books /> has the expected html structure when books are specified 1`] = `
<Fragment>
  <InfiniteScroll
    element="div"
    hasMore={false}
    loadMore={[Function]}
    threshold={250}
  >
    <Grid>
      <Connect(Link)
        key="1"
        to={
          Object {
            "payload": Object {
              "id": "1",
            },
            "type": "BOOK",
          }
        }
      >
        <ScrollIntoView
          imagePath="/images/smallcovers/B003BKZW4U.jpg"
          isSelected={false}
          subtitle="Stephen King"
          title="title1"
        />
      </Connect(Link)>
      <Connect(Link)
        key="2"
        to={
          Object {
            "payload": Object {
              "id": "2",
            },
            "type": "BOOK",
          }
        }
      >
        <ScrollIntoView
          imagePath="/images/smallcovers/B00FD4SP8M.jpg"
          isSelected={false}
          subtitle="Mark Lukens"
          title="title2"
        />
      </Connect(Link)>
    </Grid>
  </InfiniteScroll>
  <Connect(BooksPagination)
    className="booksPagination"
  />
</Fragment>
`;

exports[`<Books /> has the expected html structure with default props 1`] = `
<Fragment>
  <InfiniteScroll
    element="div"
    hasMore={false}
    loadMore={[Function]}
    threshold={250}
  >
    <Grid />
  </InfiniteScroll>
  <Connect(BooksPagination)
    className="booksPagination"
  />
</Fragment>
`;

exports[`<Books /> renders selectedShelf when it is specified 1`] = `
<Fragment>
  <div
    className="selectedShelf"
  >
    <Chip
      checkable={false}
      checked={false}
      color="magenta"
      deletable={true}
      disabled={false}
      fieldId=""
      filterable={false}
      icon={[Function]}
      inputStyle={false}
      name=""
      onDeleteClick={[Function]}
      onToggle={[Function]}
      value="Best Horror Books"
    />
  </div>
  <InfiniteScroll
    element="div"
    hasMore={false}
    loadMore={[Function]}
    threshold={250}
  >
    <Grid />
  </InfiniteScroll>
  <Connect(BooksPagination)
    className="booksPagination"
  />
</Fragment>
`;
