// Jest Snapshot v1, https://goo.gl/fbAQLP

exports[`<NavButtons /> has the expected html structure 1`] = `
<div
  className="navButtons"
/>
`;

exports[`<NavButtons /> renders children by default 1`] = `
<div
  className="navButtons"
>
  <div />
</div>
`;

exports[`<NavButtons /> renders the provided className 1`] = `
<div
  className="navButtons myClass"
/>
`;
