// Jest Snapshot v1, https://goo.gl/fbAQLP

exports[`<FileInput /> has the expected html structure 1`] = `
<input
  accept=".jpg, .jpeg, .png"
  autoComplete="off"
  className="fileInput"
  disabled={false}
  multiple={false}
  name=""
  onBlur={[Function]}
  onChange={[Function]}
  onFocus={[Function]}
  type="file"
/>
`;

exports[`<FileInput /> has the expected html structure when props are specified 1`] = `
<input
  accept=".png"
  autoComplete="off"
  className="fileInput"
  disabled={false}
  multiple={true}
  name="fileInput"
  onBlur={[Function]}
  onChange={[Function]}
  onFocus={[Function]}
  type="file"
/>
`;

exports[`<FileInput /> renders a disabled file input 1`] = `
<input
  accept=".jpg, .jpeg, .png"
  autoComplete="off"
  className="fileInput"
  disabled={true}
  multiple={false}
  name=""
  onBlur={[Function]}
  onChange={[Function]}
  onFocus={[Function]}
  type="file"
/>
`;
