// Jest Snapshot v1, https://goo.gl/fbAQLP

exports[`<InterestLevel /> has the expected html structure when interest level is specified 1`] = `
<div
  className="interestLevel"
>
  <Slider
    label="Interest"
    marks={Array []}
    max={5}
    min={0}
    name=""
    onChange={[Function]}
    outputLabels={
      Object {
        "1": "Not at all",
        "2": "Maybe",
        "3": "Moderately",
        "4": "Interesting",
        "5": "Definitely",
      }
    }
    readOnly={true}
    step={1}
    value={3}
  />
</div>
`;

exports[`<InterestLevel /> has the expected html structure with default props 1`] = `""`;
