// Jest Snapshot v1, https://goo.gl/fbAQLP

exports[`<SeriesTitle /> has the expected html structure when props are specified 1`] = `
<div
  className=""
>
  <WithSeparator
    separator=" "
  >
    <FilterLink
      filterable={false}
      onFiltering={[Function]}
      value="seriesTitle"
    >
      seriesTitle
    </FilterLink>
    #2
  </WithSeparator>
</div>
`;

exports[`<SeriesTitle /> has the expected html structure with default props 1`] = `""`;

exports[`<SeriesTitle /> renders formatted series index when series title is missing 1`] = `
<div
  className=""
>
  <WithSeparator
    separator=" "
  >
    #2
  </WithSeparator>
</div>
`;

exports[`<SeriesTitle /> renders series title when series index is missing 1`] = `
<div
  className=""
>
  <WithSeparator
    separator=" "
  >
    <FilterLink
      filterable={false}
      onFiltering={[Function]}
      value="seriesTitle"
    >
      seriesTitle
    </FilterLink>
  </WithSeparator>
</div>
`;
