// Jest Snapshot v1, https://goo.gl/fbAQLP

exports[`<PageButton /> has the expected html structure 1`] = `
<PaginationItem
  active={false}
  createHref={[Function]}
  disabled={false}
  label="1"
  onClick={[Function]}
  pageNumber={1}
/>
`;
