// Jest Snapshot v1, https://goo.gl/fbAQLP

exports[`<Search /> has the expected html structure 1`] = `
<AutoComplete
  clearSuggestions={[Function]}
  delimiterChars={
    Array [
      ",",
      "Enter",
    ]
  }
  fetchSuggestions={[Function]}
  maxSuggestionsLength={10}
  minValueLength={2}
  name="search"
  onBlur={[Function]}
  onCtrlBackspace={[Function]}
  onEscape={[Function]}
  onFocus={[Function]}
  onInputChange={[Function]}
  onSubmit={[Function]}
  suggestions={Array []}
  value=""
>
  <SearchInput
    clearSearch={[Function]}
    focused={false}
    name=""
    onBlur={[Function]}
    onChange={[Function]}
    onFocus={[Function]}
    value=""
  />
</AutoComplete>
`;
