// Jest Snapshot v1, https://goo.gl/fbAQLP

exports[`<Data /> has the expected html structure 1`] = `
<div>
  —
</div>
`;

exports[`<Data /> has the expected html structure when value is specified 1`] = `
<div>
  value
</div>
`;

exports[`<Data /> renders a duplicate data 1`] = `
<div>
  <Tooltip
    className=""
    label="Duplicate"
    position="top"
  >
    <Duplicate
      iconSize={20}
    />
  </Tooltip>
</div>
`;

exports[`<Data /> renders a missing data 1`] = `
<div>
  —
</div>
`;

exports[`<Data /> renders the value with the specified component 1`] = `
<div>
  <TestComponent
    siteName="amazon"
    value="value"
  />
</div>
`;
