// Jest Snapshot v1, https://goo.gl/fbAQLP

exports[`<SearchInput /> close button rendered when value is provided 1`] = `
<label
  className="searchField active"
>
  <Input
    defaultPadding={0}
    disableValueReset={true}
    flexibleWidth={true}
    inputElementClass="searchInput"
    minWidth={0}
    multiline={false}
    name=""
    onBlur={[Function]}
    onChange={[Function]}
    onFocus={[Function]}
    onKeyDown={[Function]}
    saveRef={null}
    type="text"
    value="king"
  />
  <button
    className="closeButton"
    onClick={[Function]}
    onKeyDown={[Function]}
    type="button"
  >
    <Close
      iconSize={16}
    />
  </button>
</label>
`;

exports[`<SearchInput /> has the expected html structure 1`] = `
<label
  className="searchField"
>
  <Input
    defaultPadding={0}
    disableValueReset={true}
    flexibleWidth={true}
    inputElementClass="searchInput"
    minWidth={0}
    multiline={false}
    name=""
    onBlur={[Function]}
    onChange={[Function]}
    onFocus={[Function]}
    onKeyDown={[Function]}
    saveRef={null}
    type="text"
    value=""
  />
</label>
`;
